﻿  ADS 103 Assessment 3 Thoriq.cpp
C:\Users\Thoriq Nazar\Documents\repos\ADS 103 Assessment 3 Thoriq\ADS 103 Assessment 3 Thoriq.cpp(18,1): warning C4326: return type of 'main' should be 'int' instead of 'void'
  ADS 103 Assessment 3 Thoriq.vcxproj -> C:\Users\Thoriq Nazar\Documents\repos\ADS 103 Assessment 3 Thoriq\x64\Debug\ADS 103 Assessment 3 Thoriq.exe
