^C:\USERS\THORIQ NAZAR\DOCUMENTS\REPOS\ADS 103 ASSESSMENT 3 THORIQ\X64\DEBUG\ADS 103 ASSESSMENT 3 THORIQ.OBJ|C:\USERS\THORIQ NAZAR\DOCUMENTS\REPOS\ADS 103 ASSESSMENT 3 THORIQ\X64\DEBUG\AVL.OBJ|C:\USERS\THORIQ NAZAR\DOCUMENTS\REPOS\ADS 103 ASSESSMENT 3 THORIQ\X64\DEBUG\BINARYMAXHEAP.OBJ|C:\USERS\THORIQ NAZAR\DOCUMENTS\REPOS\ADS 103 ASSESSMENT 3 THORIQ\X64\DEBUG\BINARYSEARCHTREE.OBJ|C:\USERS\THORIQ NAZAR\DOCUMENTS\REPOS\ADS 103 ASSESSMENT 3 THORIQ\X64\DEBUG\MENUNODE.OBJ
C:\USERS\THORIQ NAZAR\DOCUMENTS\REPOS\ADS 103 ASSESSMENT 3 THORIQ\X64\DEBUG\ADS 103 ASSESSMENT 3 THORIQ.EXE
C:\USERS\THORIQ NAZAR\DOCUMENTS\REPOS\ADS 103 ASSESSMENT 3 THORIQ\X64\DEBUG\ADS 103 ASSESSMENT 3 THORIQ.ILK
C:\USERS\THORIQ NAZAR\DOCUMENTS\REPOS\ADS 103 ASSESSMENT 3 THORIQ\X64\DEBUG\ADS 103 ASSESSMENT 3 THORIQ.PDB
